{
  "about": {
    "datasetID": "timeseries_dataset_1",
    "datasetName": "A test dataset with timeseries data",
    "description": "Historical stock market closing data",
    "source": "Kaggle",
    "sourceURI": "https://www.kaggle.com/borismarjanovic/price-volume-data-for-all-us-stocks-etfs",
    "datasetSchemaVersion": "3.2.0",
    "license": "CC0",
    "redacted": false,
    "digest": "e181058ea258f57d61f314794a4a93fbb66a4667c76fe4f48ca309700cc74ae5"
  },
  "dataResources": [
    {
      "resID": "learningData",
      "resPath": "tables/learningData.csv",
      "resType": "table",
      "resFormat": [
        "text/csv"
      ],
      "isCollection": false,
      "columns": [
        {
          "colIndex": 0,
          "colName": "d3mIndex",
          "colType": "integer",
          "role": [
            "index"
          ]
        },
        {
          "colIndex": 1,
          "colName": "Company",
          "colType": "categorical",
          "role": [
            "attribute"
          ]
        },
        {
          "colIndex": 2,
          "colName": "Year",
          "colType": "categorical",
          "role": [
            "attribute"
          ]
        },
        {
          "colIndex": 3,
          "colName": "Date",
          "colType": "dateTime",
          "role": [
            "attribute"
          ]
        },
        {
          "colIndex": 4,
          "colName": "Close",
          "colType": "real",
          "role": [
            "suggestedTarget"
          ]
        }
      ]
    }
  ]
}