{
  "about": {
    "problemID": "boston_problem_2",
    "problemName": "Predict nitrous oxide level",
    "taskType": "regression",
    "taskSubType": "univariate",
    "problemSchemaVersion": "3.2.0",
    "problemVersion": "1.0"
  },
  "inputs": {
    "data": [
      {
        "datasetID": "boston_dataset_1",
        "targets": [
          {
            "targetIndex": 0,
            "resID": "learningData",
            "colIndex": 5,
            "colName": "NOX"
          }
        ]
      }
    ],
    "performanceMetrics": [
      {
        "metric": "rSquared"
      }
    ]
  },
  "expectedOutputs": {
    "predictionsFile": "predictions.csv",
    "scoresFile": "scores.csv"
  }
}
